Spatial Microsimulation with R
…
hhlds[,c("hhld","numres","numworkers","nummanager",
         "numprof","numrout","numcars")]

## # A tibble: 260 x 7
##     hhld numres numworkers nummanager numprof numrout numcars
##    <int>  <int>      <int>      <int>   <int>   <int>   <dbl>
##  1     1      4          4          0       0       1       1
##  2     2      1          1          0       0       0       0
##  3     3      5          5          0       0       0       2
##  4     4      6          5          0       0       1       3
##  5     5      4          4          0       0       2       2
##  6     6      6          5          0       0       2       2
##  7     7      5          4          1       0       1       2
##  8     8      2          2          0       0       1       1
##  9     9      3          3          0       0       1       2
## 10    10      2          2          0       0       0       0
## # ... with 250 more rows
…
